{
    "KPlugin": {
        "Authors": [
            {
                "Email": "kexi@kde.org",
                "Name": "Kexi Team",
                "Name[az]": "Kexi komandası",
                "Name[ca@valencia]": "L'equip de Kexi",
                "Name[ca]": "L'equip del Kexi",
                "Name[cs]": "Tým Kexi",
                "Name[de]": "Kexi-Team",
                "Name[el]": "Ομάδα Kexi",
                "Name[en_GB]": "Kexi Team",
                "Name[es]": "El equipo de Kexi",
                "Name[et]": "Kexi meeskond",
                "Name[eu]": "Kexi Taldea",
                "Name[fi]": "Kexi-työryhmä",
                "Name[fr]": "L'équipe Kexi",
                "Name[gl]": "Equipo de Kexi",
                "Name[ia]": "Equipa de Kexi",
                "Name[it]": "La squadra di Kexi",
                "Name[ko]": "Kexi 팀",
                "Name[nl]": "Het team van Kexi",
                "Name[nn]": "Kexi-gruppa",
                "Name[pl]": "Zespół Kexi",
                "Name[pt]": "Equipa do Kexi",
                "Name[pt_BR]": "Equipe do Kexi",
                "Name[ru]": "Команда разработчиков Kexi",
                "Name[sk]": "Tím Kexi",
                "Name[sl]": "Team Kexi",
                "Name[sv]": "Kexi-gruppen",
                "Name[tr]": "Kexi Takımı",
                "Name[uk]": "Команда Kexi",
                "Name[x-test]": "xxKexi Teamxx",
                "Name[zh_CN]": "Kexi 团队",
                "Name[zh_TW]": "Kexi 團隊"
            }
        ],
        "Category": "",
        "Dependencies": [],
        "Description": "KDb driver for handling Sybase and MSSQL databases",
        "Description[az]": "SyBase və MSSQL verilənlər bazasının işlənməsi üçün KDb sürücüsü",
        "Description[ca@valencia]": "Controlador del KDb per a gestionar bases de dades Sybase i MSSQL",
        "Description[ca]": "Controlador del KDb per a gestionar bases de dades Sybase i MSSQL",
        "Description[cs]": "Ovladač KDb pro práci s databázemi Sybase",
        "Description[de]": "KDb-Treiber für Sybase und MSSQL",
        "Description[el]": "KDb oδηγός για χειρισμό βάσεων δεδομένων Sybase και MSSQL",
        "Description[en_GB]": "KDb driver for handling Sybase and MSSQL databases",
        "Description[es]": "Controlador de KDb para manejar bases de datos Sybase y MSSQL",
        "Description[et]": "KDb draiver Sybase'i ja MSSQL-i andmebaaside käitlemiseks",
        "Description[eu]": "Sybase eta MSSQL datu-baseak maneiatzeko KDb gidaria",
        "Description[fi]": "KDb-ajuri Sybase- ja MSSQL-tietokantojen käsittelyyn",
        "Description[fr]": "Pilote KDb de gestion des bases de données Sybase et MSSQL",
        "Description[gl]": "Controlador de KDb para manexar bases de datos Sybase e MSSQL.",
        "Description[ia]": "Driver de KDb per manear bases de datos de MSSQL",
        "Description[it]": "Driver KDb per la gestione di banche dati Sybase e MSSQL",
        "Description[ko]": "Sybase 및 MSSQL 데이터베이스를 처리하는 KDb 드라이버",
        "Description[nl]": "KDb-stuurprogramma voor behandeling van Sybase en MSSQL databases",
        "Description[nn]": "KDb-drivar for Sybase og MSSQL-databasar",
        "Description[pl]": "Sterownik KDb do obsługi baz danych Sybase oraz MSSQL",
        "Description[pt]": "Controlador do KDb para lidar com bases de dados Sybase e MSSQL",
        "Description[pt_BR]": "Driver do KDb para lidar com bancos de dados Sybase e MSSQL",
        "Description[ru]": "Драйвер KDb для работы с базами данных Sybase и MSSQL",
        "Description[sk]": "KDb ovládač na spracovanie databáz Sybase a MSSQL",
        "Description[sl]": "Gonilnik KDb za upravljanje baz podatkov Sybase in MSSQL",
        "Description[sv]": "Kdb-drivrutin för att hantera Sybase- och MSSQL-databaser",
        "Description[tr]": "Sysbase ve MSSQL veritabanlarını kullanabilmek için KDb sürücüsü",
        "Description[uk]": "Драйвер KDb для роботи з базами даних Sybase і MSSQL",
        "Description[x-test]": "xxKDb driver for handling Sybase and MSSQL databasesxx",
        "Description[zh_CN]": "处理 Sybase 和 MSSQL 数据库的 KDb 驱动",
        "Description[zh_TW]": "處理 Sybase 和 MSSQL 資料庫的 KDb 驅動",
        "EnabledByDefault": true,
        "Icon": "",
        "Id": "org.kde.kdb.sybase",
        "License": "LGPL",
        "MimeTypes": [],
        "Name": "Sybase",
        "Name[az]": "Sybase",
        "Name[ca@valencia]": "Sybase",
        "Name[ca]": "Sybase",
        "Name[cs]": "Sybase",
        "Name[de]": "Sybase",
        "Name[el]": "Sybase",
        "Name[en_GB]": "Sybase",
        "Name[es]": "Sybase",
        "Name[et]": "Sybase",
        "Name[eu]": "Sybase",
        "Name[fi]": "Sybase",
        "Name[fr]": "Sybase",
        "Name[gl]": "Sybase",
        "Name[ia]": "Sybase",
        "Name[it]": "Sybase",
        "Name[ko]": "Sybase",
        "Name[nl]": "Sybase",
        "Name[nn]": "Sybase",
        "Name[pl]": "Sybase",
        "Name[pt]": "Sybase",
        "Name[pt_BR]": "Sybase",
        "Name[ru]": "Sybase",
        "Name[sk]": "Sybase",
        "Name[sl]": "Sybase",
        "Name[sv]": "Sybase",
        "Name[tr]": "Sybase",
        "Name[uk]": "Sybase",
        "Name[x-test]": "xxSybasexx",
        "Name[zh_CN]": "Sybase",
        "Name[zh_TW]": "Sybase",
        "ServiceTypes": [
            "KDb/Driver"
        ],
        "Version": "3.3",
        "Website": "https://kexi-project.org"
    },
    "X-KDb-FileBased": "true",
    "X-KDb-ImportingEnabled": "false"
}
